<div>
	<h1 arint-key="0">{state.title}</h1>
</div>

let data = {}
let keys = []
let symbols = {}
Proxy.symbolMode = true

template.getKeys()
// get proxy[prop] =
symbols: {Symbol: data{...}}

// getKeys > symbols[proxy.Symbol] > push
keys: [data{...}]

{data{...}: HtMLElement(h1)}